digraph quintex {
        label="Quintex PoP network topology proposal 1, January 2023\nOOB: Out Of Band management network\nVPN: bastion host Virtual Private Network"
        internet [ image="simplecloud.png" shape=none ]
        server [ shape=record label="{ <host> server\ndal-node-NN | { <public> eth0,eth2\npublic | <storage> eth1,eth3\nstorage | <idrac> IPMI\nOOB } }" ]
        bastion [ shape=record label="{ <host> dal-rescue-01 | { <eth0> eth0\npublic | <eth1> eth1\nstorage | <eth2> eth2\nOOB}}" ]
        vlan82 [ label="VLAN 82\n204.8.99.0/24\npublic" ]
        vlan801 [ label="VLAN 801\n172.30.131.0/24\nstorage" ]
        vlan802 [ label="VLAN 802\n172.30.141.0/24\nOOB" ]
        internet -> vlan82
        vlan82 -> bastion:eth0 [ label="SSH" ]
        bastion:eth2 -> vlan802
        vlan802 -> server:idrac [ label="HTTP(S)" ]
        bastion:eth1 -> vlan801
        vlan801 -> server:storage [ label="DHCP\nPXE" ]
        vlan82 -> server:public
}
